[
  {
    "username": "demo1",
    "name": "Demo 1",
    "email": "example@example.com"
  },
  {
    "username": "demo2",
    "name": "Demo 2",
    "email": "example@example.com"
  },
  {
    "username": "demo3",
    "name": "Demo 3",
    "email": "example@example.com"
  },
  {
    "username": "demo4",
    "name": "Demo 4",
    "email": "example@example.com"
  },
  {
    "username": "demo5",
    "name": "Demo 5",
    "email": "example@example.com"
  },
  {
    "username": "demo6",
    "name": "Demo 6",
    "email": "example@example.com"
  }
]
